Take-home Exercise 2 – ISSS608-Lesson Learning Site
…
Part 2. Time-Series Analysis

Data preprocession(Merchandise trade data)

Next, we transform, reshape, and merge import, export, and re-export trade data into a structured format with date-based indexing, ensuring completeness by filling missing values and calculating total trade values. Finally, generate a new data set “trade_data” for further time series analysis.

# A tibble: 160 × 2
   `Data Series`       .gaps
   <chr>               <lgl>
 1 Afghanistan         FALSE
 2 Africa              FALSE
 3 Algeria             FALSE
 4 America             FALSE
 5 Angola              FALSE
 6 Antarctica          FALSE
 7 Antigua And Barbuda FALSE
 8 Argentina           FALSE
 9 Asia                FALSE
10 Australia           FALSE
# ℹ 150 more rows
…
